<svg width="20" height="20" viewBox="0 0 20 20" fill="none" xmlns="http://www.w3.org/2000/svg">
<path d="M0.230769 10.7692C0.0769231 10.6154 0 10.3846 0 10.2308C0 10.0769 0.0769231 9.84614 0.230769 9.69229L1.30769 8.61537C1.61538 8.30768 2.07692 8.30768 2.38462 8.61537L2.46154 8.69229L6.69231 13.2308C6.84615 13.3846 7.07692 13.3846 7.23077 13.2308L17.5385 2.53845H17.6154C17.9231 2.23076 18.3846 2.23076 18.6923 2.53845L19.7692 3.61537C20.0769 3.92306 20.0769 4.3846 19.7692 4.69229L7.46154 17.4615C7.30769 17.6154 7.15385 17.6923 6.92308 17.6923C6.69231 17.6923 6.53846 17.6154 6.38462 17.4615L0.384615 11L0.230769 10.7692Z" fill="black"/>
</svg>
